{
	"forge_marker": 1,
	"defaults": {
		"custom": { "flip-v": true},
		"model": "factorytech:compacthopper_side.obj"
	},
	"variants": {
		"facing": {
			"north": {"y": 90},
			"south": {"y": 270},
			"west": {"y": 0},
			"east": {"y": 180},
			"up": {"x": -90},
			"down": {"model": "factorytech:compacthopper_down.obj"}
		},
		"partid": {
            "0": {},
            "1": {}
        },
		"inventory": [{
			"transform": "forge:default-block"
		}],
		"normal": [{}]
	}
}
