{
	"forge_marker": 1,
	"defaults": {
		"custom": {"flip-v": true},
		"model": "factorytech:coregen.obj"
	},
	"variants": {
		"normal": [{}],
		"inventory": [{
			"transform": "forge:default-block"
		}]
	}
}
