{
    "type": "forge:ore_shaped",
    "result": {
        "item": "factorytech:blowtorch"
    },
    "pattern": [
        " f ",
        "tp ",
        "sps"
    ],
    "key": {
        "f": {
            "item": "minecraft:flint_and_steel",
            "data": 0
        },
        "s": {
            "item": "minecraft:stone_slab",
            "data": 0
        },
        "p": {
            "item": "factorytech:pipe"
        },
        "t": {
            "item": "factorytech:tank",
            "data": 3
        }
    }
}