{
    "type": "forge:ore_shaped",
    "result": {
        "item": "factorytech:machinepart",
        "data": 161
    },
    "pattern": [
        " s ",
        "ihi",
        "iri"
    ],
    "key": {
        "s": {
            "item": "minecraft:wooden_slab",
            "data": 0
        },
        "i": {
            "item": "#copper_nugget"
        },
        "r": {
            "item": "minecraft:redstone"
        },
        "h": {
            "item": "#shaft"
        }
    }
}