{
	"type": "forge:ore_shapeless",
	"result": {
		"item": "factorytech:machinepart",
		"data": 161
	},
	"ingredients": [
		{
			"item": "factorytech:salvagepart",
			"data": 161
		},
		{
		    "item": "factorytech:machinepart",
		    "data": 51
		}
	]
}
