{
	"type": "forge:ore_shapeless",
	"result": {
		"item": "factorytech:intermediate",
		"data": 2
	},
	"ingredients": [
		{
			"item": "factorytech:salvagepart",
			"data": 141
		},
		{
		  "item": "minecraft:gold_nugget"
		},
		{
		  "item": "#copper_nugget"
		}
	]
}
