# Blender v2.78 (sub 0) OBJ File: ''
# www.blender.org
mtllib realelevator.mtl
o Cube
v 1.000000 0.000000 0.000000
v 1.000000 0.000000 0.500000
v -0.000000 0.000000 0.500000
v 0.000000 0.000000 -0.000000
v 1.000000 1.000000 0.000000
v 1.000000 1.000000 0.500000
v -0.000000 1.000000 0.500000
v 0.000000 1.000000 0.000000
v 0.937500 0.000000 -0.000000
v 0.937500 0.000000 0.500000
v 0.937500 1.000000 0.000000
v 0.937500 1.000000 0.500000
v 0.062500 0.000000 -0.000000
v 0.062500 0.000000 0.500000
v 0.062500 1.000000 0.000000
v 0.062500 1.000000 0.500000
v 0.062500 0.000000 0.562500
v -0.000000 0.000000 0.562500
v 1.000000 0.000000 0.562500
v 1.000000 1.000000 0.562500
v -0.000000 1.000000 0.562500
v 0.062500 1.000000 0.562500
v 0.937500 0.000000 0.562500
v 0.937500 1.000000 0.562500
vt 0.0156 0.5000
vt 0.0156 0.6250
vt 0.0000 0.6250
vt 0.0000 0.5000
vt 0.0156 0.7500
vt 0.0000 0.7500
vt 0.0000 0.6250
vt 0.0156 0.6250
vt 0.2500 0.5000
vt 0.2500 0.7500
vt 0.1250 0.7500
vt 0.1250 0.5000
vt 0.1250 0.7500
vt 0.1250 0.5000
vt 0.1406 0.5000
vt 0.1406 0.7500
vt 0.0156 0.5000
vt 0.0156 0.7500
vt 0.0000 0.7500
vt 0.0000 0.5000
vt 0.2500 0.5000
vt 0.2500 0.7500
vt 0.2344 0.7500
vt 0.2344 0.5000
vt 0.0313 0.5000
vt 0.0313 0.2500
vt 0.0469 0.2500
vt 0.0469 0.5000
vt 0.2344 0.7500
vt 0.2344 0.6250
vt 0.2500 0.6250
vt 0.2500 0.6250
vt 0.2344 0.6250
vt 0.2344 0.5000
vt 0.9844 0.2500
vt 0.9844 0.5000
vt 0.7657 0.5000
vt 0.7657 0.2500
vt 0.0156 0.2500
vt 0.0156 0.5000
vt 0.0000 0.5000
vt 0.0000 0.2500
vt 0.2500 0.2500
vt 0.2500 0.5000
vt 0.2344 0.5000
vt 0.2344 0.2500
vt 0.2500 0.5000
vt 0.2344 0.5000
vt 0.2344 0.4844
vt 0.2500 0.4844
vt 0.1094 0.7500
vt 0.1094 0.5000
vt 0.2344 0.3750
vt 0.2500 0.3750
vt 0.2500 0.3906
vt 0.2344 0.3906
vt 0.0469 0.2500
vt 0.0469 0.5000
vt 0.0313 0.5000
vt 0.0313 0.2500
vt 0.0000 0.3750
vt 0.0156 0.3750
vt 0.0156 0.3906
vt 0.0000 0.3906
vt 0.0156 0.5000
vt 0.0000 0.5000
vt 0.0000 0.4844
vt 0.0156 0.4844
vn 0.0000 -1.0000 0.0000
vn 0.0000 1.0000 0.0000
vn 1.0000 0.0000 0.0000
vn -1.0000 -0.0000 -0.0000
vn 0.0000 0.0000 -1.0000
vn -0.0000 -0.0000 1.0000
usemtl Material
s off
f 13/1/1 14/2/1 3/3/1 4/4/1
f 15/5/2 8/6/2 7/7/2 16/8/2
f 1/9/3 5/10/3 6/11/3 2/12/3
f 7/13/4 3/14/4 18/15/4 21/16/4
f 3/14/4 7/13/4 8/6/4 4/4/4
f 15/17/5 13/18/5 4/19/5 8/20/5
f 5/21/5 1/22/5 9/23/5 11/24/5
f 12/25/4 10/26/4 23/27/4 24/28/4
f 5/10/2 11/29/2 12/30/2 6/31/2
f 1/9/1 2/32/1 10/33/1 9/34/1
f 11/24/5 9/23/5 13/18/5 15/17/5
f 10/35/6 12/36/6 16/37/6 14/38/6
f 11/29/2 15/5/2 16/8/2 12/30/2
f 9/34/1 10/33/1 14/2/1 13/1/1
f 17/39/6 22/40/6 21/41/6 18/42/6
f 19/43/6 20/44/6 24/45/6 23/46/6
f 6/47/2 12/48/2 24/49/2 20/50/2
f 2/12/3 6/11/3 20/51/3 19/52/3
f 10/53/1 2/54/1 19/55/1 23/56/1
f 14/57/3 16/58/3 22/59/3 17/60/3
f 3/61/1 14/62/1 17/63/1 18/64/1
f 16/65/2 7/66/2 21/67/2 22/68/2
